{
    "versionList": [
        {
            "mcVersion":"Minecraft 1.9.4",
            "modVersion":"b16",
            "changeLog": [
                "New shit"
            ],
            "updateURL":"https://bitbucket.org/thecubereich/releases/raw/master/territorychevsky/TerritorialDealings_1.9_b16.jar",
            "isDirectLink":"true",
            "newFileName":""
        }
    ]
}