{
    "versionList": [
        {
            "mcVersion":"Minecraft 1.9.4",
            "modVersion":"1.3.0",
            "changeLog": [
                "New shit"
            ],
            "updateURL":"https://bitbucket.org/thecubereich/releases/raw/master/VersionChecker/VersionChecker-1.3.0.jar",
            "isDirectLink":"true",
            "newFileName":""
        }
    ]
}